{
  "getStaffHealthRecords" : {
    "transaction" : "getStaffHealthRecords",
    "sampleCount" : 220,
    "errorCount" : 0,
    "errorPct" : 0.0,
    "meanResTime" : 1660.6136363636358,
    "medianResTime" : 196.5,
    "minResTime" : 3.0,
    "maxResTime" : 22272.0,
    "pct1ResTime" : 5450.800000000002,
    "pct2ResTime" : 6613.099999999999,
    "pct3ResTime" : 12455.149999999969,
    "throughput" : 0.7305426603707172,
    "receivedKBytesPerSec" : 0.43019260176127194,
    "sentKBytesPerSec" : 0.9000222016480378
  },
  "getCentreHolidaysOfYear" : {
    "transaction" : "getCentreHolidaysOfYear",
    "sampleCount" : 103,
    "errorCount" : 0,
    "errorPct" : 0.0,
    "meanResTime" : 29483.970873786413,
    "medianResTime" : 24974.0,
    "minResTime" : 1533.0,
    "maxResTime" : 80460.0,
    "pct1ResTime" : 52318.0,
    "pct2ResTime" : 57146.6,
    "pct3ResTime" : 79924.27999999991,
    "throughput" : 0.3276727598953992,
    "receivedKBytesPerSec" : 0.8623250241380297,
    "sentKBytesPerSec" : 0.42079070240473626
  },
  "getPastChildrenData" : {
    "transaction" : "getPastChildrenData",
    "sampleCount" : 108,
    "errorCount" : 0,
    "errorPct" : 0.0,
    "meanResTime" : 100469.36111111111,
    "medianResTime" : 96318.5,
    "minResTime" : 34763.0,
    "maxResTime" : 162572.0,
    "pct1ResTime" : 150512.7,
    "pct2ResTime" : 151584.25,
    "pct3ResTime" : 162239.81,
    "throughput" : 0.3179303909071908,
    "receivedKBytesPerSec" : 0.6449537887808842,
    "sentKBytesPerSec" : 0.7249682253596588
  },
  "suggestProgram" : {
    "transaction" : "suggestProgram",
    "sampleCount" : 103,
    "errorCount" : 0,
    "errorPct" : 0.0,
    "meanResTime" : 12556.873786407768,
    "medianResTime" : 9956.0,
    "minResTime" : 319.0,
    "maxResTime" : 53955.0,
    "pct1ResTime" : 29069.60000000003,
    "pct2ResTime" : 36785.399999999994,
    "pct3ResTime" : 53850.599999999984,
    "throughput" : 0.3384194824481857,
    "receivedKBytesPerSec" : 0.27430485393749426,
    "sentKBytesPerSec" : 0.42004996307777737
  },
  "findAllWithdrawalDraft" : {
    "transaction" : "findAllWithdrawalDraft",
    "sampleCount" : 97,
    "errorCount" : 0,
    "errorPct" : 0.0,
    "meanResTime" : 2182.1752577319585,
    "medianResTime" : 785.0,
    "minResTime" : 26.0,
    "maxResTime" : 30590.0,
    "pct1ResTime" : 5698.4000000000015,
    "pct2ResTime" : 10088.599999999999,
    "pct3ResTime" : 30590.0,
    "throughput" : 0.3269945826773777,
    "receivedKBytesPerSec" : 0.2117162190577162,
    "sentKBytesPerSec" : 1.0675223534086655
  },
  "findAllLevels" : {
    "transaction" : "findAllLevels",
    "sampleCount" : 102,
    "errorCount" : 0,
    "errorPct" : 0.0,
    "meanResTime" : 8240.411764705881,
    "medianResTime" : 5042.0,
    "minResTime" : 154.0,
    "maxResTime" : 40906.0,
    "pct1ResTime" : 19845.5,
    "pct2ResTime" : 30507.099999999995,
    "pct3ResTime" : 40777.35999999999,
    "throughput" : 0.3409797484772914,
    "receivedKBytesPerSec" : 0.2171081992257754,
    "sentKBytesPerSec" : 0.2857037345639805
  },
  "findAllClass" : {
    "transaction" : "findAllClass",
    "sampleCount" : 87,
    "errorCount" : 0,
    "errorPct" : 0.0,
    "meanResTime" : 12043.367816091952,
    "medianResTime" : 7649.0,
    "minResTime" : 397.0,
    "maxResTime" : 44142.0,
    "pct1ResTime" : 26984.40000000001,
    "pct2ResTime" : 36384.799999999996,
    "pct3ResTime" : 44142.0,
    "throughput" : 0.2843323093012615,
    "receivedKBytesPerSec" : 28.32021994390973,
    "sentKBytesPerSec" : 0.22990932822406693
  },
  "getStaffCheckInOutRecords" : {
    "transaction" : "getStaffCheckInOutRecords",
    "sampleCount" : 96,
    "errorCount" : 0,
    "errorPct" : 0.0,
    "meanResTime" : 1818.447916666667,
    "medianResTime" : 800.5,
    "minResTime" : 20.0,
    "maxResTime" : 10855.0,
    "pct1ResTime" : 4842.099999999999,
    "pct2ResTime" : 8420.75,
    "pct3ResTime" : 10855.0,
    "throughput" : 0.34145595396035555,
    "receivedKBytesPerSec" : 0.20240601958392168,
    "sentKBytesPerSec" : 0.446827127252809
  },
  "getChildrenToAssignToClass" : {
    "transaction" : "getChildrenToAssignToClass",
    "sampleCount" : 100,
    "errorCount" : 0,
    "errorPct" : 0.0,
    "meanResTime" : 5952.500000000002,
    "medianResTime" : 3974.0,
    "minResTime" : 26.0,
    "maxResTime" : 38730.0,
    "pct1ResTime" : 12254.6,
    "pct2ResTime" : 20622.849999999948,
    "pct3ResTime" : 38677.67999999997,
    "throughput" : 0.3253185682079176,
    "receivedKBytesPerSec" : 0.18521555201681245,
    "sentKBytesPerSec" : 0.23858812961342393
  },
  "getCountStaffCheckInOut" : {
    "transaction" : "getCountStaffCheckInOut",
    "sampleCount" : 99,
    "errorCount" : 0,
    "errorPct" : 0.0,
    "meanResTime" : 2097.69696969697,
    "medianResTime" : 597.0,
    "minResTime" : 11.0,
    "maxResTime" : 35017.0,
    "pct1ResTime" : 5576.0,
    "pct2ResTime" : 9777.0,
    "pct3ResTime" : 35017.0,
    "throughput" : 0.330675680640776,
    "receivedKBytesPerSec" : 0.19536990897233347,
    "sentKBytesPerSec" : 0.33713419002829115
  },
  "searchBroadcastingScope" : {
    "transaction" : "searchBroadcastingScope",
    "sampleCount" : 104,
    "errorCount" : 0,
    "errorPct" : 0.0,
    "meanResTime" : 104213.31730769233,
    "medianResTime" : 102756.0,
    "minResTime" : 52007.0,
    "maxResTime" : 158543.0,
    "pct1ResTime" : 136517.0,
    "pct2ResTime" : 145249.25,
    "pct3ResTime" : 158302.5,
    "throughput" : 0.295648564825212,
    "receivedKBytesPerSec" : 0.5772526013164889,
    "sentKBytesPerSec" : 0.5794596382853521
  },
  "getTransferDrafts" : {
    "transaction" : "getTransferDrafts",
    "sampleCount" : 104,
    "errorCount" : 0,
    "errorPct" : 0.0,
    "meanResTime" : 2628.01923076923,
    "medianResTime" : 1033.5,
    "minResTime" : 9.0,
    "maxResTime" : 20052.0,
    "pct1ResTime" : 6317.0,
    "pct2ResTime" : 12899.25,
    "pct3ResTime" : 19963.100000000006,
    "throughput" : 0.3486843869860258,
    "receivedKBytesPerSec" : 0.22405695960625485,
    "sentKBytesPerSec" : 0.6050899957755546
  },
  "leadByID" : {
    "transaction" : "leadByID",
    "sampleCount" : 95,
    "errorCount" : 0,
    "errorPct" : 0.0,
    "meanResTime" : 38945.43157894738,
    "medianResTime" : 38358.0,
    "minResTime" : 14142.0,
    "maxResTime" : 77839.0,
    "pct1ResTime" : 59440.00000000001,
    "pct2ResTime" : 71949.79999999997,
    "pct3ResTime" : 77839.0,
    "throughput" : 0.30514637389745797,
    "receivedKBytesPerSec" : 0.6962908253727603,
    "sentKBytesPerSec" : 1.3779265946307087
  },
  "registrationByID" : {
    "transaction" : "registrationByID",
    "sampleCount" : 88,
    "errorCount" : 0,
    "errorPct" : 0.0,
    "meanResTime" : 48613.30681818182,
    "medianResTime" : 44853.5,
    "minResTime" : 20020.0,
    "maxResTime" : 98214.0,
    "pct1ResTime" : 80677.30000000002,
    "pct2ResTime" : 94006.9,
    "pct3ResTime" : 98214.0,
    "throughput" : 0.2729469273309823,
    "receivedKBytesPerSec" : 0.4249590288827476,
    "sentKBytesPerSec" : 1.2415886596755035
  },
  "Total" : {
    "transaction" : "Total",
    "sampleCount" : 2041,
    "errorCount" : 0,
    "errorPct" : 0.0,
    "meanResTime" : 40106.804507594265,
    "medianResTime" : 14069.0,
    "minResTime" : 3.0,
    "maxResTime" : 331303.0,
    "pct1ResTime" : 107452.99999999997,
    "pct2ResTime" : 150494.19999999998,
    "pct3ResTime" : 323431.2,
    "throughput" : 5.802037109158463,
    "receivedKBytesPerSec" : 31.4979459854082,
    "sentKBytesPerSec" : 11.628306931067762
  },
  "getRegEnrolmentForm" : {
    "transaction" : "getRegEnrolmentForm",
    "sampleCount" : 107,
    "errorCount" : 0,
    "errorPct" : 0.0,
    "meanResTime" : 22734.69158878504,
    "medianResTime" : 23051.0,
    "minResTime" : 1521.0,
    "maxResTime" : 78110.0,
    "pct1ResTime" : 40781.200000000004,
    "pct2ResTime" : 44742.6,
    "pct3ResTime" : 76255.84000000004,
    "throughput" : 0.34754364596021114,
    "receivedKBytesPerSec" : 0.6227510911490053,
    "sentKBytesPerSec" : 1.4858848457166058
  },
  "findAllLeads" : {
    "transaction" : "findAllLeads",
    "sampleCount" : 88,
    "errorCount" : 0,
    "errorPct" : 0.0,
    "meanResTime" : 69129.92045454546,
    "medianResTime" : 65535.5,
    "minResTime" : 38765.0,
    "maxResTime" : 138444.0,
    "pct1ResTime" : 100664.6,
    "pct2ResTime" : 112354.89999999995,
    "pct3ResTime" : 138444.0,
    "throughput" : 0.2576097329640927,
    "receivedKBytesPerSec" : 0.4887072071445718,
    "sentKBytesPerSec" : 0.5831439072370771
  },
  "getEnrollmentPlansByYear" : {
    "transaction" : "getEnrollmentPlansByYear",
    "sampleCount" : 147,
    "errorCount" : 0,
    "errorPct" : 0.0,
    "meanResTime" : 201168.1156462583,
    "medianResTime" : 187803.0,
    "minResTime" : 40012.0,
    "maxResTime" : 331303.0,
    "pct1ResTime" : 325363.4,
    "pct2ResTime" : 327165.0,
    "pct3ResTime" : 331096.6,
    "throughput" : 0.4330994007318496,
    "receivedKBytesPerSec" : 0.4835626393946626,
    "sentKBytesPerSec" : 0.7185897283627075
  },
  "getAvailableVacancy" : {
    "transaction" : "getAvailableVacancy",
    "sampleCount" : 96,
    "errorCount" : 0,
    "errorPct" : 0.0,
    "meanResTime" : 12510.593749999998,
    "medianResTime" : 8824.0,
    "minResTime" : 198.0,
    "maxResTime" : 62114.0,
    "pct1ResTime" : 31723.1,
    "pct2ResTime" : 38652.45,
    "pct3ResTime" : 62114.0,
    "throughput" : 0.3131197161047907,
    "receivedKBytesPerSec" : 0.17154312571756603,
    "sentKBytesPerSec" : 0.41433321808788226
  },
  "getRegistrations" : {
    "transaction" : "getRegistrations",
    "sampleCount" : 97,
    "errorCount" : 0,
    "errorPct" : 0.0,
    "meanResTime" : 50064.278350515466,
    "medianResTime" : 45787.0,
    "minResTime" : 23124.0,
    "maxResTime" : 111043.0,
    "pct1ResTime" : 79392.8,
    "pct2ResTime" : 94983.99999999999,
    "pct3ResTime" : 111043.0,
    "throughput" : 0.29660433898512395,
    "receivedKBytesPerSec" : 0.6493893524393413,
    "sentKBytesPerSec" : 0.915881757686486
  }
}